Kevin Kosewick’s Data Analysis Portfolio - ml-models-exercise
…
Now that we’ve fit the models, we can begin to evaluate their performance. We’ll use RMSE as the metric and create some plots.

# Make predictions
all_preds <- predict(all_fit, new_data = mldata)
lasso_preds <- predict(lasso_fit, new_data = mldata)
rf_preds <- predict(rf_fit, new_data = mldata)

# Calculate RMSE
#augment to evaluate performance metric
aug_all<- augment(all_fit, mldata)
aug_all %>% select(Y, .pred)

# A tibble: 120 × 2
       Y .pred
   <dbl> <dbl>
 1 2691. 1666.
 2 2639. 1951.
 3 2150. 1896.
 4 1789. 1548.
 5 3126. 2369.
 6 2337. 1921.
 7 3007. 1510.
 8 2796. 2156.
 9 3866. 2658.
10 1762. 1352.
# ℹ 110 more rows

#LASSO augment
aug_lasso<- augment(lasso_fit, mldata)
aug_lasso %>% select(Y, .pred)

# A tibble: 120 × 2
       Y .pred
   <dbl> <dbl>
 1 2691. 1665.
 2 2639. 1951.
 3 2150. 1901.
 4 1789. 1553.
 5 3126. 2358.
 6 2337. 1929.
 7 3007. 1513.
 8 2796. 2154.
 9 3866. 2644.
10 1762. 1345.
# ℹ 110 more rows

#Forest augment
aug_rf<- augment(rf_fit, mldata)
aug_rf %>% select(Y, .pred)

# A tibble: 120 × 2
       Y .pred
   <dbl> <dbl>
 1 2691. 2229.
 2 2639. 2379.
 3 2150. 1934.
 4 1789. 1818.
 5 3126. 2740.
 6 2337. 1977.
 7 3007. 2277.
 8 2796. 2518.
 9 3866. 2959.
10 1762. 1617.
# ℹ 110 more rows
…
# Tune the LASSO model
tune_results_lasso <- tune_grid(
  lasso_workflow,
  resamples = resamples,
  grid = penalty_grid
)

# Print the tuning results for LASSO
print(tune_results_lasso)

# Tuning results
# 5-fold cross-validation repeated 5 times 
# A tibble: 25 × 5
   splits          id      id2   .metrics           .notes          
   <list>          <chr>   <chr> <list>             <list>          
 1 <split [96/24]> Repeat1 Fold1 <tibble [100 × 5]> <tibble [0 × 3]>
 2 <split [96/24]> Repeat1 Fold2 <tibble [100 × 5]> <tibble [0 × 3]>
 3 <split [96/24]> Repeat1 Fold3 <tibble [100 × 5]> <tibble [0 × 3]>
 4 <split [96/24]> Repeat1 Fold4 <tibble [100 × 5]> <tibble [0 × 3]>
 5 <split [96/24]> Repeat1 Fold5 <tibble [100 × 5]> <tibble [0 × 3]>
 6 <split [96/24]> Repeat2 Fold1 <tibble [100 × 5]> <tibble [0 × 3]>
 7 <split [96/24]> Repeat2 Fold2 <tibble [100 × 5]> <tibble [0 × 3]>
 8 <split [96/24]> Repeat2 Fold3 <tibble [100 × 5]> <tibble [0 × 3]>
 9 <split [96/24]> Repeat2 Fold4 <tibble [100 × 5]> <tibble [0 × 3]>
10 <split [96/24]> Repeat2 Fold5 <tibble [100 × 5]> <tibble [0 × 3]>
# ℹ 15 more rows
…
# Tune the Random Forest model
tune_results_rf <- tune_grid(
  rf_workflow,
  resamples = resamples,
  grid = rf_param_grid
)

# Print the tuning results for Random Forest
print(tune_results_rf)

# Tuning results
# 5-fold cross-validation repeated 5 times 
# A tibble: 25 × 5
   splits          id      id2   .metrics          .notes          
   <list>          <chr>   <chr> <list>            <list>          
 1 <split [96/24]> Repeat1 Fold1 <tibble [98 × 6]> <tibble [0 × 3]>
 2 <split [96/24]> Repeat1 Fold2 <tibble [98 × 6]> <tibble [0 × 3]>
 3 <split [96/24]> Repeat1 Fold3 <tibble [98 × 6]> <tibble [0 × 3]>
 4 <split [96/24]> Repeat1 Fold4 <tibble [98 × 6]> <tibble [0 × 3]>
 5 <split [96/24]> Repeat1 Fold5 <tibble [98 × 6]> <tibble [0 × 3]>
 6 <split [96/24]> Repeat2 Fold1 <tibble [98 × 6]> <tibble [0 × 3]>
 7 <split [96/24]> Repeat2 Fold2 <tibble [98 × 6]> <tibble [0 × 3]>
 8 <split [96/24]> Repeat2 Fold3 <tibble [98 × 6]> <tibble [0 × 3]>
 9 <split [96/24]> Repeat2 Fold4 <tibble [98 × 6]> <tibble [0 × 3]>
10 <split [96/24]> Repeat2 Fold5 <tibble [98 × 6]> <tibble [0 × 3]>
# ℹ 15 more rows
…
