Kevin Kosewick’s Data Analysis Portfolio - Data Exercise
…
# Calculate mean and standard deviation
smoke_summary <- smoke_filtered %>%
  group_by(LocationAbbr, Year, Variable) %>%
  summarise(
    Mean = mean(Data_Value, na.rm = TRUE),
    SD = sd(Data_Value, na.rm = TRUE)
  )

`summarise()` has grouped output by 'LocationAbbr', 'Year'. You can override
using the `.groups` argument.

# Print the summary statistics
print(smoke_summary)

# A tibble: 150 × 5
# Groups:   LocationAbbr, Year [25]
   LocationAbbr  Year Variable             Mean    SD
   <chr>        <int> <chr>               <dbl> <dbl>
 1 CA            2005 Ambulatory          2057.    NA
 2 CA            2005 Hospital            5309.    NA
 3 CA            2005 Nursing Home         592.    NA
 4 CA            2005 Other                620.    NA
 5 CA            2005 Prescription Drugs  1883.    NA
 6 CA            2005 Total              10460.    NA
 7 CA            2006 Ambulatory          2122.    NA
 8 CA            2006 Hospital            5652.    NA
 9 CA            2006 Nursing Home         641.    NA
10 CA            2006 Other                677.    NA
# ℹ 140 more rows
…
# Calculate mean and standard deviation for all 5 states combined
smoke_summary <- smoke_filtered %>%
  group_by(LocationAbbr, Variable) %>%
  summarise(
    Mean = mean(Data_Value, na.rm = TRUE),
    SD = sd(Data_Value, na.rm = TRUE)
  )

`summarise()` has grouped output by 'LocationAbbr'. You can override using the
`.groups` argument.

# Print the summary statistics
print(smoke_summary)

# A tibble: 30 × 4
# Groups:   LocationAbbr [5]
   LocationAbbr Variable             Mean     SD
   <chr>        <chr>               <dbl>  <dbl>
 1 CA           Ambulatory          2294.  208. 
 2 CA           Hospital            6006.  571. 
 3 CA           Nursing Home         699.   87.9
 4 CA           Other                725.   76.8
 5 CA           Prescription Drugs  2172.  197. 
 6 CA           Total              11896. 1131. 
 7 FL           Ambulatory          1419.  105. 
 8 FL           Hospital            3532.  270. 
 9 FL           Nursing Home         595.   58.9
10 FL           Other                514.   53.3
# ℹ 20 more rows
…
