Kevin Kosewick’s Data Analysis Portfolio - Fitting Exercise
…
# Create a workflow
workflow_all <- workflow() %>% 
  add_model(model_spec_all) %>% 
  add_formula(Y ~ .)

#fit the DOSE model
dose_fit <- workflow_dose %>% 
  fit(data = train_data2)

#augment to evaluate performance metric
aug_dose<- augment(dose_fit, train_data2)
aug_dose %>% select(Y, .pred)

# A tibble: 90 × 2
       Y .pred
   <dbl> <dbl>
 1 3004. 3207.
 2 1347. 1871.
 3 2772. 2539.
 4 2028. 1871.
 5 2353. 3207.
 6  826. 1871.
 7 3866. 1871.
 8 3126. 1871.
 9 1108. 1871.
10 2815. 2539.
# ℹ 80 more rows

#get RMSE of DOSE model
rmsedose<- aug_dose %>% rmse(truth = Y, .pred)

#fit the all predictors model
all_fit <- workflow_all %>% 
  fit(data = train_data2)

#augment to evaluate performance metric
aug_all<- augment(all_fit, train_data2)
aug_all %>% select(Y, .pred)

# A tibble: 90 × 2
       Y .pred
   <dbl> <dbl>
 1 3004. 3303.
 2 1347. 1953.
 3 2772. 2745.
 4 2028. 2081.
 5 2353. 2894.
 6  826. 1265.
 7 3866. 2429.
 8 3126. 1976.
 9 1108. 1561.
10 2815. 2549.
# ℹ 80 more rows
…
