Kevin Kosewick’s Data Analysis Portfolio - Data Exercise
…
# Adjust the food consumption based on the season
data$Daily_Food_Consumption[data$Food_Type == "insects"] <- 
  data$Daily_Food_Consumption[data$Food_Type == "insects"] * 
  rep(insect_proportion, each = N/2)[data$Season[data$Food_Type == "insects"]]

# Print the data
data

# A tibble: 100 × 5
   Food_Type   Age Daily_Food_Consumption Season Sex   
   <chr>     <int>                  <dbl> <chr>  <chr> 
 1 insects       3                     NA spring female
 2 insects      14                     NA spring male  
 3 insects       3                     NA spring female
 4 insects      10                     NA spring male  
 5 insects       2                     NA spring female
 6 insects       6                     NA spring male  
 7 insects      11                     NA spring male  
 8 insects       5                     NA spring male  
 9 insects       4                     NA spring female
10 insects      14                     NA spring female
# ℹ 90 more rows
…
Warning in data$Daily_Food_Consumption[data$Food_Type == "insects" &
(data$Season == : number of items to replace is not a multiple of replacement
length

# Replace the NA values with randomized values that have an average of 0.5
if (any(is.na(data$Daily_Food_Consumption))) {
  data <- data %>% mutate(Daily_Food_Consumption = replace_na(Daily_Food_Consumption, rnorm(sum(is.na(Daily_Food_Consumption)), mean(Daily_Food_Consumption), 0.1)))
}

# Print the data
data

# A tibble: 100 × 5
   Food_Type   Age Daily_Food_Consumption Season Sex   
   <chr>     <int>                  <dbl> <chr>  <chr> 
 1 insects       3                  0.286 spring female
 2 insects      14                  0.384 spring male  
 3 insects       3                  0.406 spring female
 4 insects      10                  0.329 spring male  
 5 insects       2                  0.284 spring female
 6 insects       6                  0.309 spring male  
 7 insects      11                  0.383 spring male  
 8 insects       5                  0.289 spring male  
 9 insects       4                  0.206 spring female
10 insects      14                  0.284 spring female
# ℹ 90 more rows
…
# Adjust the food consumption based on the season and sex
data$Daily_Food_Consumption[data$Food_Type == "insects" & (data$Season == "spring" | data$Season == "summer") & data$Sex == "female"] <- 
  data$Daily_Food_Consumption[data$Food_Type == "insects" & (data$Season == "spring" | data$Season == "summer") & data$Sex == "female"] * 
  1.75

# Replace the NA values with randomized values that have an average of 0.5
if (any(is.na(data$Daily_Food_Consumption))) {
  data <- data %>% mutate(Daily_Food_Consumption = replace_na(Daily_Food_Consumption, rnorm(sum(is.na(Daily_Food_Consumption)), mean(Daily_Food_Consumption), 0.1)))
}

# Print the data
data

# A tibble: 100 × 5
   Food_Type   Age Daily_Food_Consumption Season Sex   
   <chr>     <int>                  <dbl> <chr>  <chr> 
 1 insects       3                  0.835 spring female
 2 insects      14                  0.640 spring male  
 3 insects       3                  1.18  spring female
 4 insects      10                  0.549 spring male  
 5 insects       2                  0.828 spring female
 6 insects       6                  0.515 spring male  
 7 insects      11                  0.638 spring male  
 8 insects       5                  0.482 spring male  
 9 insects       4                  0.601 spring female
10 insects      14                  0.829 spring female
# ℹ 90 more rows
…
  Food_Type              Age        Daily_Food_Consumption    Season         
 Length:100         Min.   : 1.00   Min.   :0.2652         Length:100        
 Class :character   1st Qu.: 5.00   1st Qu.:0.4490         Class :character  
 Mode  :character   Median : 8.50   Median :0.5660         Mode  :character  
                    Mean   : 7.92   Mean   :0.6026                           
                    3rd Qu.:11.00   3rd Qu.:0.6929                           
                    Max.   :14.00   Max.   :1.2025                           
     Sex           
 Length:100        
 Class :character  
 Mode  :character  

structure(data)

# A tibble: 100 × 5
   Food_Type   Age Daily_Food_Consumption Season Sex   
   <chr>     <int>                  <dbl> <chr>  <chr> 
 1 insects       3                  0.835 spring female
 2 insects      14                  0.640 spring male  
 3 insects       3                  1.18  spring female
 4 insects      10                  0.549 spring male  
 5 insects       2                  0.828 spring female
 6 insects       6                  0.515 spring male  
 7 insects      11                  0.638 spring male  
 8 insects       5                  0.482 spring male  
 9 insects       4                  0.601 spring female
10 insects      14                  0.829 spring female
# ℹ 90 more rows
…
